5+3

push 5
push 3
add (fa il pop dei due valori che sono in cima allo stack e poi push del risultato)

5-3
push 5
push 3
sub

calcolo ((3+5)*(7-8))/(2*6)

push 3
push 5
add
push 7
push 8
sub
mult
push 2
push 6
mult
div



